…
Download associated metadata for the sequences.

``` r
tic() # Set a timer

fetch_metadata(query_string)
```

    ## Fetching metadata, attempt 1 of 10

    ## Registered S3 method overwritten by 'crul':
    ##   method                 from
    ##   as.character.form_file httr

    ## # A tibble: 99 x 8
    ##         gi accession taxid title       slen subtype     subname     species
    ##      <int> <chr>     <int> <chr>      <int> <chr>       <chr>       <chr>  
    ##  1  1.28e9 KY099784  32127 Crepidoma…  1309 isolate|sp… JNG0671|Ni… Crepid…
    ##  2  1.70e8 EU338465  32127 Crepidoma…  1238 specimen_v… J.Nitta041… Crepid…
    ##  3  1.62e8 EU122974  32127 Crepidoma…  1238 specimen_v… J.Nitta076… Crepid…
    ##  4  1.62e8 EU122973  32127 Crepidoma…  1238 specimen_v… J.Nitta028… Crepid…
    ##  5  1.62e8 EU122972  32127 Crepidoma…  1238 specimen_v… J.Nitta008… Crepid…
    ##  6  3.13e8 AB574710  32127 Crepidoma…  1205 specimen_v… TNS:762567… Crepid…
    ##  7  5.46e8 AB479140  32127 Crepidoma…  1206 specimen_v… personal:T… Crepid…
    ##  8  5.46e8 AB479139  32127 Crepidoma…  1206 specimen_v… personal:S… Crepid…
    ##  9  5.46e8 AB479138  32127 Crepidoma…  1206 specimen_v… personal:A… Crepid…
    ## 10  5.46e8 AB479137  32127 Crepidoma…  1206 specimen_v… personal:S… Crepid…
    ## # … with 89 more rows
…
